{
  "images" : [
    {
      "idiom" : "universal",
      "filename" : "9-93854_shopping-cart-computer-icons-online-shopping-clip-art.png",
      "scale" : "1x"
    },
    {
      "idiom" : "universal",
      "scale" : "2x"
    },
    {
      "idiom" : "universal",
      "scale" : "3x"
    }
  ],
  "info" : {
    "version" : 1,
    "author" : "xcode"
  }
}